refV = 3931
0,  8.38,  9.19,  3712.81,  3405.19 
1,  44.50,  47.06,  3711.75,  3404.75 
2,  83.62,  85.88,  3712.56,  3404.12 
3,  122.00,  123.38,  3713.94,  3404.19 
4,  160.25,  163.38,  3712.88,  3404.12 
5,  199.44,  201.94,  3713.19,  3404.06 
6,  238.69,  242.00,  3712.94,  3403.81 
7,  279.38,  279.69,  3712.00,  3403.81 
8,  318.50,  318.44,  3711.31,  3403.12 
9,  358.19,  358.94,  3713.19,  3403.75 
10,  397.50,  397.62,  3713.75,  3402.81 
11,  435.81,  436.44,  3713.81,  3402.94 
12,  474.00,  479.81,  3711.56,  3402.06 
13,  513.44,  517.75,  3711.69,  3402.50 
14,  550.31,  555.81,  3712.12,  3401.25 
15,  589.50,  593.75,  3710.81,  3400.00 
16,  628.44,  632.12,  3709.25,  3398.25 
17,  667.31,  671.56,  3706.62,  3397.00 
18,  707.62,  709.44,  3704.31,  3396.12 
19,  748.38,  749.19,  3702.06,  3393.00 
20,  788.19,  788.25,  3697.31,  3388.88 
21,  826.38,  826.94,  3690.69,  3383.00 
22,  865.06,  865.56,  3678.81,  3372.31 
23,  901.44,  904.50,  3651.56,  3346.69 
24,  937.81,  943.69,  3502.25,  3208.94 
25,  974.62,  981.88,  3065.75,  2808.62 
26,  1014.31,  1020.75,  2597.81,  2380.62 
27,  1059.12,  1059.12,  2159.06,  1982.00 
28,  1098.75,  1099.44,  1754.38,  1613.50 
29,  1139.12,  1137.88,  1399.12,  1280.44 
30,  1178.62,  1177.56,  1080.00,  986.62 
31,  1217.44,  1216.69,  804.44,  735.38 
32,  1255.19,  1255.69,  578.06,  527.75 
33,  1291.88,  1293.69,  399.56,  365.50 
34,  1328.44,  1332.88,  266.19,  244.12 
35,  1367.56,  1371.88,  172.38,  158.69 
36,  1406.69,  1410.88,  108.00,  100.56 
37,  1451.06,  1449.25,  65.75,  62.94 
38,  1490.62,  1487.88,  38.94,  39.38 
39,  1530.00,  1527.75,  24.94,  24.81 
40,  1570.56,  1566.31,  16.62,  16.75 
41,  1609.44,  1604.38,  10.88,  12.88 
42,  1646.94,  1642.19,  6.88,  7.31 
43,  1682.69,  1680.94,  7.75,  7.62 
44,  1720.75,  1723.56,  8.31,  8.06 
45,  1758.94,  1761.81,  8.56,  7.81 
46,  1797.50,  1800.44,  8.12,  7.44 
47,  1837.56,  1841.50,  7.31,  8.19 
48,  1879.69,  1880.25,  6.88,  7.81 
49,  1921.81,  1919.31,  7.62,  8.12 
50,  1963.00,  1957.69,  7.75,  8.38 
51,  2000.31,  1995.06,  8.00,  8.31 
52,  2039.81,  2033.12,  7.81,  8.19 
53,  2076.06,  2072.00,  8.38,  7.25 
54,  2113.06,  2116.75,  8.88,  8.06 
55,  2151.25,  2157.38,  9.69,  7.62 
56,  2189.62,  2194.75,  9.56,  7.81 
57,  2229.19,  2233.88,  8.56,  8.06 
58,  2270.88,  2270.69,  8.31,  8.88 
59,  2313.31,  2309.25,  8.62,  7.31 
60,  2352.06,  2348.00,  9.50,  7.75 
61,  2389.19,  2386.25,  10.06,  7.94 
62,  2426.31,  2424.50,  10.12,  7.88 
63,  2462.81,  2463.19,  10.56,  8.31 
64,  2504.19,  2502.31,  12.62,  7.62 
65,  2542.12,  2541.81,  11.62,  7.75 
66,  2580.19,  2581.06,  10.69,  8.25 
67,  2621.00,  2619.88,  9.69,  8.44 
68,  2662.06,  2658.44,  8.31,  7.75 
69,  2702.50,  2697.88,  9.06,  8.38 
70,  2742.25,  2736.88,  9.19,  7.88 
71,  2779.25,  2775.38,  9.81,  7.31 
72,  2817.69,  2813.81,  15.25,  7.75 
73,  2853.69,  2851.94,  17.06,  8.25 
74,  2895.50,  2891.94,  15.75,  7.62 
75,  2934.25,  2931.75,  15.06,  7.94 
76,  2972.38,  2970.75,  13.88,  8.31 
77,  3012.75,  3009.50,  12.50,  8.06 
78,  3053.00,  3048.62,  11.62,  8.06 
79,  3093.12,  3088.19,  11.88,  7.44 
80,  3132.19,  3126.81,  11.75,  7.94 
81,  3170.19,  3165.50,  12.12,  7.50 
82,  3209.31,  3203.75,  12.31,  7.75 
83,  3247.50,  3243.25,  12.56,  7.75 
84,  3285.69,  3282.25,  13.00,  7.62 
85,  3323.06,  3320.38,  13.50,  7.69 
86,  3361.62,  3358.69,  13.50,  8.00 
87,  3402.25,  3396.50,  11.69,  8.44 
88,  3441.94,  3434.81,  11.31,  7.38 
89,  3482.81,  3477.75,  10.75,  7.75 
90,  3521.81,  3517.06,  11.50,  8.25 
91,  3558.94,  3556.00,  11.31,  7.81 
92,  3598.81,  3597.38,  13.06,  7.56 
93,  3637.06,  3635.44,  13.81,  7.81 
94,  3676.94,  3674.25,  15.00,  7.62 
95,  3717.31,  3713.44,  15.12,  8.00 
96,  3755.00,  3752.06,  15.00,  7.62 
97,  3794.38,  3790.69,  14.81,  7.88 
98,  3833.75,  3830.12,  14.12,  8.06 
99,  3872.19,  3868.12,  14.50,  7.69 
100,  3889.44,  3883.38,  17.00,  8.88 
