refV = 3926,Excite,Drv,Sns,Snk
0,7.88,6.38,3879.31,5.06
1,44.44,41.31,3879.19,5.56
2,80.88,81.56,3878.75,5.25
3,119.69,118.38,3879.31,5.94
4,157.5,157.94,3879.62,5.69
5,196.38,196.19,3879.94,5.62
6,238.19,235.31,3880.19,5.19
7,277.62,274.69,3880.44,5.31
8,317,314.31,3880.38,5.12
9,356.44,354.75,3879.62,5
10,395.81,394.06,3881.94,5.31
11,434.62,432.31,3883.19,5.44
12,472.94,475.62,3882.88,5.44
13,511.88,513.62,3882.19,5.38
14,549.81,550.62,3881.5,5.12
15,588.31,588.44,3882.19,5.62
16,626.94,627.69,3881.88,5.31
17,667.31,667.12,3881.25,5.62
18,707.19,706.75,3880.94,5.25
19,747.69,747.31,3881.25,4.94
20,786.75,785.81,3880.5,5.56
21,825.56,824.31,3880.31,5.69
22,864.38,863.44,3881,6.88
23,901.56,901.19,3880.81,12.38
24,937.56,938.44,3881.38,23.75
25,973.56,975.94,3881.81,48.38
26,1015.88,1016.81,3881.06,95.19
27,1059.62,1057.56,3879.44,179.31
28,1099.81,1097.94,3875.56,312.56
29,1139.75,1139.25,3865.44,516.81
30,1178.69,1177.94,3852.5,808.88
31,1217.81,1214.94,3840.44,1199.38
32,1254.75,1253,3814.25,1705.19
33,1291.31,1290.69,3782.81,2329.38
34,1327.81,1329,3747.25,3035.56
35,1365.69,1368.12,3733.94,3286.12
36,1404.5,1406.94,3731.38,3326.38
37,1450.62,1447.06,3730,3344.88
38,1490.19,1486.81,3729,3356.06
39,1529.38,1527.12,3727.19,3363.25
40,1569.5,1566.5,3725.88,3368.5
41,1606.38,1603.5,3728.62,3371.81
42,1646.12,1640.62,3729.38,3375.75
43,1681.62,1677.56,3729.31,3376.81
44,1718.25,1715.06,3730.25,3378.94
45,1757.19,1756.94,3730.19,3379.75
46,1795.31,1799.38,3730.56,3381.75
47,1835.88,1838.06,3729.56,3382.19
48,1878.38,1877.62,3729.12,3382.25
49,1919.69,1918,3730,3383.19
50,1959.56,1956.75,3730.12,3383.69
51,1998.25,1993.88,3730.44,3384.62
52,2037.44,2031,3730.81,3385.25
53,2074,2067.62,3731.12,3385
54,2110.56,2103.75,3731.25,3385.62
55,2148.94,2152.38,3731.62,3386.5
56,2186.94,2191.81,3731.25,3386.31
57,2228.75,2229.5,3731.81,3386.81
58,2269.44,2268.38,3731.75,3385.94
59,2310.62,2306.88,3731.94,3387.06
60,2349.69,2345.56,3733.81,3387.38
61,2386.75,2384.25,3733.81,3387.5
62,2423.56,2420.44,3732.88,3387.12
63,2462.12,2457.69,3733.25,3388
64,2502,2495.5,3733.69,3388.25
65,2540.06,2534.56,3732.75,3388.56
66,2578.25,2574.25,3732.31,3388.44
67,2619.62,2614.56,3731.38,3388.44
68,2660.44,2654.25,3731,3389
69,2701.25,2694.94,3731,3389.06
70,2740.56,2735.38,3733.44,3389.75
71,2778,2772.69,3736.31,3389.56
72,2815.81,2810.31,3737.5,3389.62
73,2853.75,2847.62,3736.38,3390.38
74,2893.19,2885.5,3735.81,3389.88
75,2931.75,2925.5,3735,3391
76,2970.69,2965.25,3734.19,3391.31
77,3011.19,3004.62,3734.88,3390.12
78,3051.5,3044.94,3734,3390.81
79,3091.81,3085.38,3734.12,3390.69
80,3130.06,3124.12,3734.19,3390.81
81,3168.38,3162.56,3733.69,3391.19
82,3207.62,3200.88,3735,3391.62
83,3244.81,3238.5,3735.5,3391.19
84,3282.56,3276.94,3735,3392.44
85,3320.75,3315.25,3735.19,3392.25
86,3359.44,3353.81,3734.88,3391.06
87,3400.5,3391.81,3734.62,3391.56
88,3439.62,3431.56,3733.12,3391.44
89,3479,3474.62,3732.75,3391
90,3518.62,3514,3732.62,3392.25
91,3556.38,3552.25,3736.31,3391.56
92,3595.88,3593.31,3736.75,3391.31
93,3633.88,3631.31,3737.12,3392.19
94,3672.5,3670.06,3737.94,3391.44
95,3714,3708.69,3737.88,3391.12
96,3751.75,3748,3737.94,3391.88
97,3791.94,3786.25,3738,3391.31
98,3830.5,3825.56,3737.88,3391.25
99,3868.56,3863.31,3738.19,3391.5
100,3889.12,3882.19,3739.94,3392.81
